1.3  Collaboration, collaboratively

1      cover
2      inside cover
3      index
4      masthead
5      ad (house ad)
6      editor's letter1 <FINAL>
7      editor's letter2 <FINAL>
8      production colophon1 (ana + ricardo)
9   ?--production colophon2 <SEE FILES IN LAYOUT FOLDER> -- still missing some text (:
10     ad (pro bono ad)
11     new releases <FINAL>
12     upcoming <FINAL>
13     upcoming <FINAL>
14     crossland <SEE ASSETS FOLDER>
15     schrijver <FINAL>
16     schrijver <FINAL>
18     ad
19     in practice <FINAL>
20     in practice <FINAL>
21     first time <FINAL>
22     ad
23     notebook <FINAL>
24     notebook <FINAL>
25     notebook <FINAL>
26     best of svg <FINAL>
27     best of svg <FINAL>
28     ad
29-38  showcase (ff3300 <FINAL> makemake <FINAL> parco <FINAL> lafkon <FINAL>)
39     ad (house ad with call for submissions for issue 1.4) <FINAL>
40-43  Martin Owens feature <FINAL>
44     ad
45-48  Sparkleshare feature <FINAL>
49     ad
50-52  Parallel feature <FINAL>
53 ad
54-56  resources <FINAL>
57     glossary <FINAL>
58     glossary <FINAL>
