<?xml version="1.0" encoding="UTF-8" standalone="no"?>
<!-- Created with Inkscape (http://www.inkscape.org/) -->
<svg xmlns:dc="http://purl.org/dc/elements/1.1/" xmlns:cc="http://creativecommons.org/ns#" xmlns:rdf="http://www.w3.org/1999/02/22-rdf-syntax-ns#" xmlns:svg="http://www.w3.org/2000/svg" xmlns="http://www.w3.org/2000/svg" xmlns:sodipodi="http://sodipodi.sourceforge.net/DTD/sodipodi-0.dtd" xmlns:inkscape="http://www.inkscape.org/namespaces/inkscape" width="348.46368" height="635.27142" id="svg3964" version="1.1" inkscape:version="0.47 r22583" sodipodi:docname="Deaf_alphabet_Y.svg">
  <defs id="defs3966">
    <inkscape:perspective sodipodi:type="inkscape:persp3d" inkscape:vp_x="0 : 526.18109 : 1" inkscape:vp_y="0 : 1000 : 0" inkscape:vp_z="744.09448 : 526.18109 : 1" inkscape:persp3d-origin="372.04724 : 350.78739 : 1" id="perspective3972"/>
    <inkscape:perspective id="perspective4060" inkscape:persp3d-origin="0.5 : 0.33333333 : 1" inkscape:vp_z="1 : 0.5 : 1" inkscape:vp_y="0 : 1000 : 0" inkscape:vp_x="0 : 0.5 : 1" sodipodi:type="inkscape:persp3d"/>
  </defs>
  <sodipodi:namedview id="base" pagecolor="#ffffff" bordercolor="#666666" borderopacity="1.0" inkscape:pageopacity="0.0" inkscape:pageshadow="2" inkscape:zoom="1.0513672" inkscape:cx="264.54267" inkscape:cy="347.66574" inkscape:document-units="px" inkscape:current-layer="layer1" showgrid="false" inkscape:window-width="1280" inkscape:window-height="996" inkscape:window-x="0" inkscape:window-y="0" inkscape:window-maximized="1"/>
  <metadata id="metadata3969">
    <rdf:RDF>
      <cc:Work rdf:about="">
        <dc:format>image/svg+xml</dc:format>
        <dc:type rdf:resource="http://purl.org/dc/dcmitype/StillImage"/>
        <dc:title/>
      </cc:Work>
    </rdf:RDF>
  </metadata>
  <g inkscape:label="Calque 1" inkscape:groupmode="layer" id="layer1" transform="translate(-110.457, -244.757)">
    <path style="fill:#000000" d="m 194.91182,878.59189 c 0.39353,-1.0255 -0.0577,-1.5 -1.42635,-1.5 -3.90578,0 -3.36191,-11.38273 0.99145,-20.75029 1.19149,-2.56385 2.33415,-8.11878 2.87984,-14 0.49754,-5.36234 1.28389,-12.35105 1.74745,-15.53047 0.46725,-3.20477 0.45488,-7.88372 -0.0278,-10.5 -0.47883,-2.59558 -0.99955,-5.54272 -1.15715,-6.5492 -0.15761,-1.00647 -0.87505,-2.19366 -1.59432,-2.63819 -0.71927,-0.44453 -1.01776,-1.27746 -0.66333,-1.85095 0.35443,-0.57349 0.18709,-1.32536 -0.37189,-1.67082 -0.55893,-0.34546 -1.01627,-2.37378 -1.01627,-4.50738 0,-2.86756 0.71719,-4.62984 2.75,-6.75727 3.63516,-3.80438 10.76171,-9.24543 12.10943,-9.24543 0.58939,0 2.36579,-1.2651 3.94756,-2.81133 2.18748,-2.13833 3.39877,-4.95114 5.05992,-11.75 2.40932,-9.86098 2.75762,-12.83906 4.14465,-35.43867 0.52321,-8.525 1.22607,-18.34128 1.56191,-21.81396 0.41562,-4.29763 0.0934,-8.4491 -1.00908,-13 -0.89084,-3.67732 -1.81002,-7.71722 -2.04263,-8.97755 -0.38644,-2.09387 -2.12232,-6.22396 -6.28706,-14.95849 -1.01385,-2.12631 -2.27313,-3.25472 -3.64217,-3.26365 -3.67267,-0.024 -6.59253,-1.17684 -6.59253,-2.60298 0,-0.76085 -0.8625,-2.24587 -1.91667,-3.30004 -1.05416,-1.05416 -1.63631,-2.19701 -1.29367,-2.53966 0.34265,-0.34265 -0.30998,-0.86697 -1.45028,-1.16517 -1.31124,-0.3429 -2.55285,-1.9953 -3.37806,-4.49571 -0.71763,-2.17444 -2.41387,-5.06261 -3.76942,-6.41816 -1.35554,-1.35555 -2.21231,-2.46463 -1.90393,-2.46463 0.62566,0 -2.13409,-3.36437 -7.03797,-8.57986 -1.7875,-1.90109 -3.25,-3.89834 -3.25,-4.43833 0,-0.54 -0.525,-0.98181 -1.16667,-0.98181 -0.64166,0 -0.89692,-0.26974 -0.56723,-0.59943 0.32968,-0.32969 -0.73583,-1.90469 -2.36782,-3.5 -1.63198,-1.59531 -2.61422,-2.90746 -2.18276,-2.91588 0.43146,-0.008 0.10948,-0.44201 -0.71552,-0.96353 -0.825,-0.52152 -1.50263,-1.30212 -1.50585,-1.73469 -0.003,-0.43256 -0.96114,-2.36147 -2.12872,-4.28647 -1.16758,-1.925 -2.69148,-5.3 -3.38644,-7.5 -0.69496,-2.2 -1.87454,-4.88763 -2.62128,-5.97251 -0.74674,-1.08487 -1.35771,-3.02621 -1.35771,-4.31407 0,-1.28787 -1.20711,-4.90024 -2.68246,-8.0275 -1.47536,-3.12725 -2.75172,-5.91092 -2.83637,-6.18592 -0.0846,-0.275 -0.453,-1.175 -0.81855,-2 -0.8143,-1.83771 -3.00327,-9.85099 -5.59995,-20.5 -1.07291,-4.4 -2.65093,-9.96908 -3.50671,-12.37573 -0.85578,-2.40665 -1.55596,-5.16419 -1.55596,-6.12787 0,-0.96368 -0.75456,-3.49461 -1.67681,-5.62428 -0.92224,-2.12966 -1.78755,-4.46957 -1.92291,-5.19979 -0.13536,-0.73022 -0.90831,-2.75522 -1.71765,-4.5 -6.58999,-14.2066 -6.54674,-13.90508 -4.00559,-27.92189 1.05754,-5.83332 1.67089,-14.42204 1.66041,-23.25044 -0.0157,-13.23437 -0.4015,-17.16599 -3.82683,-39 -0.77656,-4.95 -1.54017,-10.575 -1.69692,-12.5 -0.15674,-1.925 -0.81935,-3.95 -1.47246,-4.5 -2.99701,-2.52385 -4.34113,-11.75193 -4.35967,-29.9315 -0.021,-20.61773 -1.79873,-33.81786 -4.94972,-36.75345 -1.07152,-0.99828 -2.35724,-1.81505 -2.85715,-1.81505 -0.49991,0 -2.17689,-1.9125 -3.72663,-4.25 -3.88091,-5.85366 -5.58672,-20.23927 -3.09603,-26.10971 1.4583,-3.43714 1.92588,-3.78735 4.27077,-3.19882 1.94765,0.48882 3.13068,0.12687 4.54414,-1.39029 1.05103,-1.12815 2.59499,-2.05118 3.43102,-2.05118 0.83604,0 1.27413,-0.39794 0.97354,-0.8843 -0.64263,-1.03979 9.66117,-1.81282 17.17788,-1.28875 2.88717,0.2013 4.99811,0.77258 4.69099,1.26952 -0.30713,0.49694 0.336,0.90353 1.42917,0.90353 1.09318,0 2.66259,0.675 3.48759,1.5 0.825,0.825 1.99048,1.5 2.58995,1.5 0.59947,0 3.93733,2.8125 7.41748,6.25 3.48014,3.4375 7.36685,6.925 8.63713,7.75 2.78135,1.80638 5.11135,4.28803 4.75648,5.06606 -0.40587,0.88986 5.38834,5.93394 6.81641,5.93394 1.80863,0 3.40229,-1.79021 8.33935,-9.36791 2.37654,-3.64765 4.74468,-6.63209 5.26253,-6.63209 0.51786,0 0.66018,-0.45529 0.31627,-1.01174 -0.34747,-0.56223 0.73707,-1.28422 2.44098,-1.625 1.68646,-0.3373 3.06628,-1.00701 3.06628,-1.48826 0,-0.48125 1.96219,-0.875 4.36043,-0.875 6.35103,0 13.66948,-1.14259 13.11059,-2.04689 -0.2656,-0.42975 2.89011,-1.09743 7.01268,-1.48375 8.09111,-0.7582 19.64683,0.2139 17.59764,1.48037 -0.74425,0.45997 0.48105,0.99649 3.0683,1.34352 2.36904,0.31775 4.45515,1.02113 4.63579,1.56305 0.31594,0.94781 6.08648,-1.51681 7.27279,-3.10623 0.30785,-0.41246 1.4162,-0.12365 2.463,0.64179 1.44015,1.05306 1.6364,1.72222 0.80651,2.74993 -0.60323,0.74701 -1.4139,2.84072 -1.80148,4.65268 -0.79686,3.72533 1.58077,9.74876 5.74847,14.56305 2.40255,2.77529 4.44107,8.60204 6.78456,19.39248 0.62711,2.8875 1.47032,5.25 1.87379,5.25 0.40348,0 0.7336,0.62592 0.7336,1.39094 0,2.91261 6.84422,18.82217 9.28191,21.57602 6.94838,7.84956 9.05142,10.58874 9.05142,11.78936 0,0.7211 1.34273,2.62365 2.98384,4.22788 1.64111,1.60424 3.38906,4.62657 3.88434,6.7163 0.49527,2.08972 1.22568,4.587 1.62314,5.5495 0.62727,1.51901 0.11041,1.75 -3.91572,1.75 -3.2005,0 -4.8168,0.46499 -5.21397,1.5 -0.80979,2.11028 -4.05436,1.86418 -6.592,-0.5 -1.18072,-1.1 -1.8369,-2 -1.45819,-2 0.37871,0 -0.16562,-0.85418 -1.20962,-1.89818 -1.044,-1.044 -2.20362,-3.28884 -2.57694,-4.98853 -0.37331,-1.6997 -1.09413,-3.34707 -1.60182,-3.66084 -0.50768,-0.31377 -0.92306,-1.65559 -0.92306,-2.98183 0,-1.32624 -1.05293,-4.78719 -2.33984,-7.69098 -3.09152,-6.97572 -5.47271,-13.65723 -6.03785,-16.94193 -0.25193,-1.46426 -0.95886,-3.59804 -1.57095,-4.74174 -0.61209,-1.14371 -2.6905,-7.37068 -4.61868,-13.83772 -5.89088,-19.75772 -6.73103,-22.25825 -7.47847,-22.25825 -0.695,0 -2.24893,-3.81862 -2.09571,-5.14996 0.0412,-0.35748 -1.1249,-0.95107 -2.5912,-1.31909 -1.46631,-0.36802 -3.61242,-1.69032 -4.76915,-2.93844 -1.68414,-1.81723 -3.58427,-2.39349 -9.53787,-2.89262 -4.08912,-0.34282 -7.5905,-1.09054 -7.78085,-1.6616 -0.4433,-1.32989 -3.17943,-1.36284 -3.17943,-0.0383 0,0.55 -1.15156,1 -2.55902,1 -1.45136,0 -2.2915,-0.43284 -1.94098,-1 0.35191,-0.5694 -0.50929,-1 -2,-1 -1.49071,0 -2.35191,0.4306 -2,1 0.33992,0.55 -0.0835,1 -0.94098,1 -0.85746,0 -1.55902,-0.45 -1.55902,-1 0,-0.55 -1.35,-1 -3,-1 -1.65,0 -3,0.40122 -3,0.89159 0,0.49038 -1.21471,1.19647 -2.69936,1.56909 -5.32812,1.33727 -11.06998,10.33789 -9.80648,15.3721 0.35183,1.40179 1.43914,3.25038 2.41625,4.10797 2.62014,2.29965 3.02483,4.33423 1.2638,6.3538 -0.86065,0.987 -1.70148,2.69004 -1.86851,3.78453 -0.45293,2.96789 3.19894,12.98958 6.91863,18.98653 l 3.27567,5.28109 0.56662,-11.42335 c 0.64128,-12.92858 1.11044,-14.53288 4.43592,-15.16859 4.28855,-0.81981 4.87179,0.39645 4.0274,8.39856 -0.9956,9.43504 -1.02068,8.88635 0.86129,18.84668 0.88332,4.675 1.60665,12.01323 1.6074,16.30718 0.001,7.9413 1.28479,15.63852 3.18839,19.1225 3.24504,5.93908 5.51045,15.39018 5.28736,22.0584 -0.12858,3.84345 0.11025,7.89345 0.53073,9 0.4833,1.27186 0.17582,3.02348 -0.8359,4.76192 -1.29991,2.23362 -2.31104,2.75 -5.38482,2.75 -2.08141,0 -3.78439,0.45 -3.78439,1 0,0.55 -0.9,1.9 -2,3 -1.13017,1.13017 -2,3.33333 -2,5.06574 0,1.68616 -0.49737,3.99508 -1.10526,5.13094 -0.63266,1.18213 -1.04685,6.49895 -0.96866,12.43426 0.1291,9.80054 0.0252,10.36906 -1.89474,10.36906 -1.11724,0 -2.03134,0.45 -2.03134,1 0,0.55 -0.675,1 -1.5,1 -0.825,0 -1.5,-0.4187 -1.5,-0.93045 0,-0.51175 -1.01167,-1.07425 -2.24816,-1.25 -4.02045,-0.57146 -5.57908,-9.25546 -5.67182,-31.60093 -0.0674,-16.23437 0.15612,-19.372 1.41424,-19.85479 0.82184,-0.31537 1.24528,-0.97625 0.94098,-1.46861 -0.3043,-0.49237 0.17484,-0.89522 1.06476,-0.89522 0.90772,0 1.3239,0.47591 0.94803,1.0841 -0.42654,0.69015 0.18794,0.96269 1.69098,0.75 2.05318,-0.29054 2.40091,-0.95782 2.66718,-5.11829 0.18581,-2.90339 -0.30559,-6.01052 -1.25,-7.90363 -0.85591,-1.71569 -1.55619,-3.86031 -1.55619,-4.76581 0,-0.9055 -0.39641,-2.07386 -0.8809,-2.59636 -0.4845,-0.5225 -2.34729,-5.225 -4.13953,-10.45 -1.79225,-5.225 -3.81183,-9.82684 -4.48796,-10.2263 -1.88428,-1.11325 -3.21908,-5.4508 -4.54633,-14.7737 -0.66555,-4.675 -1.56028,-8.95 -1.98829,-9.5 -0.428,-0.55 -1.53339,-3.925 -2.45641,-7.5 -2.00474,-7.76463 -6.07212,-17 -7.48702,-17 -0.55746,0 -1.01356,-0.675 -1.01356,-1.5 0,-0.825 -0.8625,-2.3625 -1.91667,-3.41667 -1.05416,-1.05416 -1.65416,-2.17916 -1.33333,-2.5 0.32083,-0.32083 -0.12535,-0.58333 -0.99151,-0.58333 -0.86616,0 -2.85366,-2.03924 -4.41667,-4.53164 -1.563,-2.4924 -3.85121,-4.7904 -5.08491,-5.10667 -1.2337,-0.31627 -2.02431,-0.92903 -1.75691,-1.36169 0.2674,-0.43266 -0.63571,-1.06823 -2.00691,-1.41238 -1.3712,-0.34415 -2.49309,-1.03558 -2.49309,-1.53652 0,-0.50094 -2.1375,-1.95445 -4.75,-3.23002 -2.6125,-1.27558 -4.975,-2.58902 -5.25,-2.91876 -0.275,-0.32974 -3.18279,-0.90778 -6.46176,-1.28455 -3.27897,-0.37676 -6.20397,-1.05924 -6.5,-1.51661 -0.82033,-1.26743 -4.57283,-2.21698 -6.23722,-1.5783 -0.8144,0.31252 -2.96155,3.42653 -4.77143,6.92002 -2.68,5.17303 -3.16526,7.02039 -2.61483,9.95446 0.51035,2.72041 1.169,3.60266 2.68957,3.60266 1.10754,0 1.73559,-0.45 1.39567,-1 -0.34463,-0.55763 0.40341,-0.99323 1.69098,-0.98469 1.85764,0.0123 2.01579,0.20481 0.80902,0.98469 -1.3268,0.85745 -1.3236,0.97114 0.0278,0.98469 2.68486,0.0269 7.94265,8.35735 7.99448,12.66644 0.0284,2.36325 3.59776,7.0622 4.6018,6.05816 2.13172,-2.13172 0.6896,-10.53851 -2.32493,-13.55304 -2.525,-2.52499 -1.13921,-4.65625 3.0276,-4.65625 4.57431,0 5.81715,1.83902 7.77189,11.5 2.12671,10.51091 1.25412,21.62719 -2.20128,28.04311 -1.31853,2.44821 -2.69676,4.68058 -3.06274,4.96083 -1.11377,0.85287 -1.89362,8.2388 -2.07478,19.65026 -0.1818,11.4515 0.41956,13.70004 4.8719,18.21655 1.28539,1.30392 2.09254,2.76642 1.79367,3.25 -0.29887,0.48359 0.57601,0.87925 1.94418,0.87925 4.09288,0 5.63045,2.46111 5.63045,9.01241 0,3.22826 0.45,6.14767 1,6.48759 0.55,0.33992 1,1.71648 1,3.05902 0,2.1355 -0.45009,2.44098 -3.59651,2.44098 l -3.59652,0 0.42348,4.75 c 0.6192,6.94524 2.58798,13.93634 5.87197,20.8513 2.97701,6.26854 4.01418,15.59057 1.88127,16.90878 -0.55897,0.34546 -0.77543,1.01787 -0.48102,1.49424 0.29441,0.47637 -0.92503,1.00778 -2.70987,1.18091 -2.86826,0.27821 -3.62542,1.05084 -6.51899,6.65214 -2.17701,4.21422 -3.26872,7.73195 -3.25863,10.5 0.0187,5.12256 2.43177,13.68557 3.27445,11.61961 0.49598,-1.21596 0.77578,-1.17062 1.69145,0.27413 0.60344,0.95212 2.40843,3.16677 4.01109,4.92146 1.60266,1.75469 2.6835,3.56319 2.40186,4.01889 -0.28163,0.4557 0.0126,0.82854 0.65394,0.82854 0.6413,0 0.9175,0.64761 0.61376,1.43913 -0.31896,0.83121 0.86936,2.83769 2.81316,4.75 2.25969,2.22308 3.56542,4.61402 3.97419,7.27722 0.33484,2.1815 1.42872,4.8815 2.43085,6 1.58083,1.76442 3.18239,4.95456 3.28011,6.53365 0.017,0.275 0.44619,0.75664 0.95372,1.07031 1.28279,0.79281 2.94645,6.92969 1.87858,6.92969 -0.47742,0 -0.88158,0.7875 -0.89813,1.75 -0.0165,0.9625 -0.32293,4.99876 -0.68085,8.96946 -0.35793,3.97071 -0.29872,8.02071 0.13157,9 0.43028,0.9793 0.84332,2.00554 0.91786,2.28054 0.81887,3.02113 1.83381,5 2.56446,5 0.49085,0 1.43176,1.8 2.0909,4 1.39459,4.65473 3.29247,5.15739 4.71957,1.25 0.63278,-1.73256 1.03359,-2.10254 1.08333,-1 0.0434,0.9625 0.59184,1.75 1.21871,1.75 1.56629,0 3.36164,2.45423 6.94958,9.5 1.68046,3.3 3.6341,6.675 4.34142,7.5 0.70732,0.825 1.78328,2.9824 2.39103,4.79423 0.60775,1.81182 2.02148,4.58129 3.14161,6.15437 1.12013,1.57308 2.03803,3.24067 2.03978,3.70577 0.002,0.4651 1.76416,3.49429 3.91647,6.73154 2.1523,3.23724 3.70042,6.4406 3.44026,7.11857 -0.26017,0.67797 0.51087,1.48997 1.71341,1.80444 1.47042,0.38453 1.99044,1.08253 1.58795,2.13142 -0.32918,0.85782 -0.25965,1.55966 0.15451,1.55966 0.41415,0 1.59974,1.4625 2.63465,3.25 1.0349,1.7875 3.04442,4.64147 4.4656,6.34216 4.44324,5.3171 7.90101,11.3295 15.18735,26.40784 l 3.141,6.5 -1.22895,14 c -0.67592,7.7 -1.42327,17.6 -1.66078,22 -0.23751,4.4 -1.06016,10.25 -1.82812,13 -1.84233,6.59727 -3.7986,21.44438 -3.84896,29.2116 -0.0307,4.7406 -0.41175,6.32896 -1.60892,6.70716 -0.86276,0.27256 5.33772,0.35791 13.77884,0.18967 9.77046,-0.19473 15.59465,-0.70579 16.02765,-1.4064 0.37408,-0.60528 3.78185,-1.23585 7.57281,-1.40127 7.97595,-0.34803 10.27997,-2.44684 3.36519,-3.06547 l -4.31314,-0.38588 4.25,-0.1747 c 2.3375,-0.0961 4.25,-0.62471 4.25,-1.17471 0,-0.57255 3.02778,-1 7.08333,-1 5.20936,0 6.97348,0.32958 6.66808,1.24576 -0.22839,0.68517 -1.05339,1.29162 -1.83333,1.34768 -0.77994,0.0561 -2.88058,0.17047 -4.66808,0.25425 -5.56992,0.26104 -3.55287,2.15231 2.29545,2.15231 l 5.54546,0 -2.5,2.5 c -2.15229,2.15229 -3.40131,2.5 -8.98036,2.5 -3.56419,0 -7.74715,0.48825 -9.29545,1.08499 -1.54831,0.59675 -6.71138,1.2422 -11.47351,1.43433 -4.76212,0.19213 -9.71212,0.89914 -11,1.57113 -6.0369,3.14995 -8.52715,3.82783 -7.40766,2.01645 0.31092,-0.50307 -1.08261,-0.4762 -3.19098,0.0615 -2.05862,0.52506 -4.28566,1.00195 -4.94896,1.05977 -0.66331,0.0578 -1.01142,0.41998 -0.77358,0.80481 0.23783,0.38483 -0.45696,1.50457 -1.54399,2.48832 -1.20328,1.08896 -1.97642,3.07167 -1.97642,5.06855 0,1.80395 -0.39868,4.32852 -0.88596,5.61015 -0.48727,1.28164 -1.16607,4.57343 -1.50843,7.3151 -1.20713,9.66687 -2.08912,14.79913 -3.26261,18.98486 -0.30839,1.1 -0.897,4.74857 -1.30802,8.10793 -0.69036,5.64244 -3.78849,13.04578 -6.78498,16.2135 -0.6875,0.72678 -1.25,1.97841 -1.25,2.78138 0,0.80298 -0.675,1.71898 -1.5,2.03556 -0.825,0.31659 -1.5,1.59684 -1.5,2.84502 0,1.28032 -1.77719,4.15644 -4.07767,6.59908 -2.24272,2.38132 -4.13848,5.13694 -4.21281,6.1236 -0.0743,0.9867 -0.48937,1.79397 -0.92232,1.79397 -0.43296,0 -0.7872,0.62686 -0.7872,1.39301 0,0.76616 -0.7118,1.66616 -1.58179,2 -2.25844,0.86665 -2.42333,0.78392 -1.77984,-0.89301 z m 42.94992,-93.35714 c -0.29136,-0.47143 -2.56792,-0.85715 -5.05902,-0.85715 -2.4911,0 -4.52927,0.38572 -4.52927,0.85715 0,0.47143 2.27656,0.85714 5.05902,0.85714 2.78246,0 4.82063,-0.38571 4.52927,-0.85714 z M 211.11516,459.22587 c 1.44101,-4.80964 1.45491,-6.71122 0.068,-9.30266 -1.05753,-1.97602 -1.13261,-1.95559 -2.5,0.68005 -1.85601,3.57747 -1.90454,12.48863 -0.068,12.48863 0.73794,0 1.86294,-1.73971 2.5,-3.86602 z m -72.84171,-60.51154 c 0,-1.30765 -0.675,-2.93775 -1.5,-3.62244 -1.28638,-1.0676 -1.5,-0.72901 -1.5,2.37756 0,2.55328 0.44272,3.62244 1.5,3.62244 0.91273,0 1.5,-0.93084 1.5,-2.37756 z m 72,-1.18146 c 0,-0.85746 -0.45,-1.2809 -1,-0.94098 -0.55,0.33992 -1,1.04148 -1,1.55902 0,0.51754 0.45,0.94098 1,0.94098 0.55,0 1,-0.70156 1,-1.55902 z m -71.70999,-16.75436 c 0.47997,-1.25076 -0.19055,-6.68662 -0.8248,-6.68662 -2.94598,0 -4.22178,2.86483 -2.85822,6.41821 0.73581,1.9175 2.98725,2.08157 3.68302,0.26841 z m 56.70999,-4.68662 c 0,-1.65 -0.45,-3 -1,-3 -0.55,0 -1,1.35 -1,3 0,1.65 0.45,3 1,3 0.55,0 1,-1.35 1,-3 z m 239.48513,478.34227 c -2.01708,-2.01708 -1.96893,-16.20227 0.0775,-22.84227 1.96689,-6.38181 2.04966,-32.19998 0.11301,-35.25 -0.87341,-1.37553 3.00184,-1.71099 7.09541,-0.6142 1.79553,0.48107 2.03163,0.89699 1.12755,1.98634 -0.8943,1.07757 -0.77706,1.37786 0.53794,1.37786 0.92481,0 1.42337,0.4176 1.10793,0.928 -0.31545,0.51041 0.33299,1.21573 1.44098,1.56739 1.62247,0.51495 2.03181,1.55069 2.10338,5.322 0.18477,9.73665 -0.30057,14.62021 -1.55377,15.63441 -1.84009,1.48917 -2.79271,5.38067 -4.41809,18.0482 -1.56606,12.20522 -1.79701,13.51334 -2.51203,14.22836 -1.26865,1.26866 -3.64424,1.08951 -5.11984,-0.38609 z m -10.2143,-53.94644 c 0.33229,-0.33229 1.19479,-0.36781 1.91667,-0.0789 0.79773,0.31922 0.56078,0.55618 -0.60417,0.60416 -1.05416,0.0434 -1.64479,-0.19293 -1.3125,-0.52522 z m -19.27083,-2.87192 c -2.475,-0.73523 -7.9944,-1.64292 -12.26533,-2.0171 -4.5258,-0.39651 -8.3549,-1.2699 -9.17857,-2.09357 -0.77728,-0.77728 -2.54383,-1.41324 -3.92565,-1.41324 -1.38183,0 -2.79805,-0.46216 -3.14715,-1.02703 -0.37888,-0.61303 -4.9375,-0.97345 -11.30902,-0.89412 -5.87085,0.0731 -11.94107,-0.36474 -13.48938,-0.97297 -1.5483,-0.60823 -5.1483,-1.11277 -8,-1.12119 -3.7164,-0.011 -4.76006,-0.28987 -3.6849,-0.98469 1.08997,-0.70439 1.14217,-0.97356 0.19098,-0.98469 -0.71996,-0.008 -1.05465,-0.42688 -0.74377,-0.9299 0.31089,-0.50302 -5e-5,-1.1425 -0.69098,-1.42105 -0.69093,-0.27856 -0.15373,-0.54199 1.19377,-0.58541 2.69692,-0.0869 1.85068,-1.51699 -1.45,-2.45041 -1.1,-0.31108 3.38506,-0.3472 9.96679,-0.0803 6.58173,0.26693 12.40923,0.92776 12.95,1.46853 0.54077,0.54077 2.18696,0.98321 3.65821,0.98321 7.89231,0 11.63253,2.85407 4.11598,3.1408 -7.52057,0.28688 6.92624,1.9611 21.24327,2.46184 18.37088,0.64254 19.05474,0.35564 20.57032,-8.62971 0.82409,-4.88577 0.86741,-9.22416 0.15127,-15.14784 -0.64826,-5.36211 -0.65972,-8.51368 -0.0324,-8.9014 0.56358,-0.34831 0.32639,-1.13538 -0.56513,-1.87527 -1.74101,-1.44492 -1.18361,-3.0484 1.05972,-3.0484 0.825,0 1.22189,0.45 0.88197,1 -0.33992,0.55 -0.10398,1 0.52432,1 0.62829,0 0.95285,0.5625 0.72124,1.25 -0.2316,0.6875 0.20796,1.71375 0.97681,2.28056 1.50962,1.11292 2.92619,9.8038 3.86614,23.71944 0.45123,6.6803 0.93202,8.75 2.03264,8.75 0.79289,0 1.68367,0.63077 1.9795,1.4017 0.29584,0.77094 2.09422,1.69368 3.99641,2.05053 1.90219,0.35685 3.19446,1.07609 2.87171,1.5983 -0.32274,0.52221 0.002,0.97799 0.72221,1.01286 0.71996,0.0349 0.18402,0.53211 -1.19098,1.10501 -2.38186,0.99239 -2.40549,1.08059 -0.5,1.86632 3.43268,1.41548 -18.62993,0.93591 -23.5,-0.51081 z m 12,-0.58293 c 0,-0.58246 -0.45,-0.7809 -1,-0.44098 -0.55,0.33992 -1,0.81648 -1,1.05902 0,0.24254 0.45,0.44098 1,0.44098 0.55,0 1,-0.47656 1,-1.05902 z m -31.72917,-9.54515 c 0.33229,-0.33229 1.19479,-0.36781 1.91667,-0.0789 0.79773,0.31922 0.56078,0.55618 -0.60417,0.60416 -1.05416,0.0434 -1.64479,-0.19293 -1.3125,-0.52522 z m 14.47917,-0.10156 c 1.2375,-0.23836 3.2625,-0.23836 4.5,0 1.2375,0.23835 0.225,0.43337 -2.25,0.43337 -2.475,0 -3.4875,-0.19502 -2.25,-0.43337 z m -70.75,-1.29427 c 0.825,-0.53316 1.95,-0.96937 2.5,-0.96937 0.55,0 0.325,0.43621 -0.5,0.96937 -0.825,0.53316 -1.95,0.96937 -2.5,0.96937 -0.55,0 -0.325,-0.43621 0.5,-0.96937 z m -15.39015,-0.73682 c -4.13198,-0.42552 -7.64273,-2.7411 -5.35092,-3.52929 0.69347,-0.2385 -0.30325,-1.37539 -2.25893,-2.57662 l -3.5,-2.14979 5.25,-0.004 c 5.27054,-0.004 7.20764,-1.48758 3,-2.29801 -1.2375,-0.23835 0.35333,-0.49465 3.53518,-0.56955 5.49273,-0.1293 5.73108,-0.0351 4.71482,1.86382 -1.03209,1.92848 -0.7562,2.00113 7.71482,2.0316 l 8.78518,0.0316 -2.80576,2.4684 c -2.70047,2.37577 -2.72236,2.4684 -0.58334,2.4684 1.22234,0 1.91872,0.30371 1.54752,0.67491 -0.3712,0.37121 -4.07842,0.58705 -8.23826,0.47966 -4.93354,-0.12737 -7.34408,0.15951 -6.93274,0.82508 0.34684,0.56119 0.26656,0.9447 -0.1784,0.85225 -0.44496,-0.0925 -2.55959,-0.34838 -4.69917,-0.56872 z m 15.39015,-3.13818 c 0,-1.21538 -4.93679,-2.06838 -8.25,-1.42547 -4.68971,0.91002 -3.02755,2.30047 2.75,2.30047 3.025,0 5.5,-0.39375 5.5,-0.875 z m 25.5,-3.125 c -0.33992,-0.55 -0.16803,-1 0.38197,-1 0.55,0 1.27811,0.45 1.61803,1 0.33992,0.55 0.16803,1 -0.38197,1 -0.55,0 -1.27811,-0.45 -1.61803,-1 z m -102.76903,-1.65594 c 0.67703,-0.27392 2.02703,-0.29059 3,-0.0371 0.97297,0.25354 0.41903,0.47766 -1.23097,0.49804 -1.65,0.0204 -2.44606,-0.18706 -1.76903,-0.46099 z m 5.26903,-1.34406 c 0,-0.55 1.8,-1 4,-1 2.2,0 4,0.45 4,1 0,0.55 -1.8,1 -4,1 -2.2,0 -4,-0.45 -4,-1 z m 146.69033,-25.75 c -2.1094,-3.69896 -3.0696,-10.82316 -3.3358,-24.75 -0.1682,-8.8 -0.65428,-20.275 -1.08017,-25.5 -1.0262,-12.58965 0.28207,-33.45008 2.75947,-44 1.09781,-4.675 2.19539,-9.54845 2.43906,-10.82989 0.68928,-3.62478 1.72946,-6.62155 2.48877,-7.17011 1.31692,-0.9514 5.67385,-15.92346 7.71161,-26.5 0.3179,-1.65 1.00921,-3.54159 1.53625,-4.20354 1.33411,-1.6756 3.76793,-9.57395 5.32978,-17.29646 0.72304,-3.575 1.80718,-8.3 2.4092,-10.5 0.89564,-3.27296 3.27263,-14.61653 4.50521,-21.5 0.14773,-0.825 0.52512,-2.175 0.83864,-3 1.78186,-4.68875 3.44948,-14.49677 3.61898,-21.28488 0.10692,-4.28168 0.86108,-11.48168 1.67592,-16 0.98513,-5.46262 1.66633,-18.42631 2.03312,-38.69153 0.30338,-16.76202 0.96291,-31.24494 1.46562,-32.18426 0.5027,-0.93931 0.91401,-3.2967 0.91401,-5.23864 0,-1.94194 0.6261,-5.45902 1.39133,-7.81574 2.16286,-6.66111 4.32526,-17.21594 6.10212,-29.78495 0.89416,-6.325 2.49892,-15.19622 3.56615,-19.71381 2.33201,-9.87152 2.48148,-15.59224 0.45141,-17.27705 -0.81894,-0.67967 -1.24239,-1.63477 -0.94098,-2.12245 0.3014,-0.48768 0.0715,-0.88669 -0.51101,-0.88669 -0.58246,0 -1.05902,-0.675 -1.05902,-1.5 0,-0.825 0.40598,-1.5 0.90217,-1.5 0.4962,0 1.32688,-1.2375 1.84596,-2.75 1.2472,-3.63412 -1.05904,-27.33768 -3.1285,-32.15473 -0.84951,-1.9774 -2.0288,-5.50777 -2.62065,-7.84527 -0.59184,-2.3375 -1.50872,-4.30625 -2.03752,-4.375 -0.5288,-0.0688 -1.93646,-0.18125 -3.12813,-0.25 -2.9462,-0.16997 -3.37924,-2.12266 -1.02997,-4.64431 2.82236,-3.02944 2.40045,-6.24669 -1.37584,-10.49135 -2.92108,-3.2834 -5.17844,-8.53294 -4.61802,-10.73934 0.10478,-0.4125 -0.2595,-0.75 -0.8095,-0.75 -0.55,0 -1,-0.68912 -1,-1.53139 0,-0.84226 -0.6475,-1.77985 -1.43889,-2.08354 -1.15186,-0.442 -2.49474,-3.7259 -3.01997,-7.38507 -0.0395,-0.275 -0.37726,-0.97889 -0.75063,-1.56419 -1.10311,-1.72923 -0.69997,-10.8423 0.55369,-12.51636 1.58566,-2.11741 4.62905,-3.16434 4.76176,-1.63807 0.0583,0.67024 0.0218,2.48077 -0.0811,4.0234 -0.31006,4.64868 2.06419,16.6414 3.59828,18.17549 1.73605,1.73605 4.37133,0.93355 4.39136,-1.33726 0.008,-0.90366 -0.86064,-4.56801 -1.93023,-8.14301 -1.0696,-3.575 -2.54163,-9.39907 -3.27119,-12.94237 l -1.32646,-6.44238 -5.52589,-0.37379 c -4.80257,-0.32486 -5.8809,-0.0448 -8.23802,2.13973 -1.49167,1.38243 -3.30479,2.8747 -4.02916,3.31616 -1.8314,1.11612 -5.69355,13.14475 -5.69355,17.73249 0,4.55517 4.14783,22.0113 6.9669,29.32016 1.98097,5.13599 1.98333,5.25 0.10848,5.25 -1.33831,0 -2.14766,0.98046 -2.6828,3.25 -1.04209,4.4195 -0.75601,14.77901 0.53667,19.43421 0.58278,2.09868 1.06211,6.12109 1.06517,8.93867 0.006,5.76084 3.00719,13.56441 6.03068,15.68215 1.0792,0.7559 1.66504,1.6715 1.30187,2.03466 -0.36317,0.36317 -0.21051,0.66031 0.33924,0.66031 1.91825,0 0.67612,4.12725 -1.98465,6.59446 -2.31054,2.14245 -2.68156,3.28336 -2.68156,8.24601 0,3.16774 -0.42503,6.18703 -0.94452,6.70953 -0.51948,0.5225 -1.21868,2.51339 -1.55376,4.42421 -0.33509,1.91082 -0.94708,3.71082 -1.35999,4 -1.10089,0.77102 -5.40798,17.74559 -5.90674,23.27894 -0.23564,2.61424 -0.0202,5.98924 0.47865,7.5 0.4989,1.51077 0.72443,3.58625 0.50119,4.61219 -0.60184,2.76578 -6.08869,1.55049 -10.27893,-2.27671 -1.85989,-1.69874 -3.65775,-3.08863 -3.99524,-3.08863 -0.33749,0 -1.84856,-2.4408 -3.35792,-5.42401 -1.50936,-2.9832 -3.38295,-5.66908 -4.16352,-5.96861 -0.78057,-0.29954 -1.41922,-1.19623 -1.41922,-1.99266 0,-0.79643 -0.35375,-1.59805 -0.78612,-1.78139 -1.34693,-0.57113 -4.8553,-6.17791 -6.02433,-9.62756 -0.61399,-1.81182 -1.96602,-4.51182 -3.00452,-6 -1.0385,-1.48817 -2.16542,-4.15179 -2.50428,-5.91914 -0.68749,-3.58572 -9.40114,-17.28663 -10.99413,-17.28663 -0.56098,0 -0.74773,-0.27223 -0.41501,-0.60495 0.33273,-0.33272 -0.49227,-1.62182 -1.83333,-2.86467 -1.34105,-1.24285 -2.43828,-2.57099 -2.43828,-2.95142 0,-0.38044 -1.27498,-1.90383 -2.8333,-3.38533 -1.55831,-1.4815 -3.90858,-4.26863 -5.22282,-6.19363 -1.31424,-1.925 -3.18925,-4.37235 -4.1667,-5.43856 -0.97745,-1.06621 -1.77718,-2.52871 -1.77718,-3.25 0,-0.72129 -0.65264,-1.31144 -1.45031,-1.31144 -0.79767,0 -1.85471,-0.72262 -2.34897,-1.60581 -0.55083,-0.98428 -2.7881,-1.81878 -5.78024,-2.15604 -3.46217,-0.39024 -4.31086,-0.75043 -2.91878,-1.23875 1.3146,-0.46113 -0.0724,-0.91878 -4.20005,-1.38576 -3.38957,-0.38349 -6.3459,-1.24094 -6.56963,-1.90544 -0.31015,-0.9212 -0.74233,-0.93229 -1.8194,-0.0467 -0.77694,0.63884 -2.76262,1.31384 -4.41262,1.5 -2.76682,0.31218 -2.99103,0.6311 -2.88464,4.1031 0.0801,2.61348 1.31662,5.51837 4.04392,9.5 3.68482,5.37956 9.29913,16.11297 9.37465,17.92244 0.0187,0.44712 0.90339,2.61295 1.96607,4.81295 1.06268,2.2 1.94741,4.53036 1.96607,5.17857 0.0187,0.64822 0.59643,1.77322 1.28393,2.5 0.6875,0.72679 2.0948,3.79643 3.12734,6.82143 1.80057,5.2751 6.18659,12.69299 9.5357,16.12734 2.5376,2.60218 5.08696,5.84657 5.08696,6.4738 0,0.31805 0.95869,1.35458 2.13043,2.30339 3.11435,2.52185 4.18488,10.50015 1.7095,12.74033 -1.01196,0.91581 -1.83993,1.19545 -1.83993,0.62142 0,-0.57403 -1.575,-1.33917 -3.5,-1.7003 -1.925,-0.36113 -3.5,-1.08622 -3.5,-1.61129 0,-0.52507 -0.66742,-0.95468 -1.48315,-0.95468 -2.11185,0 -6.0925,-8.40422 -8.59874,-18.1542 -1.17991,-4.59019 -2.50407,-8.7958 -2.94258,-9.3458 -0.4385,-0.55 -1.56772,-3.025 -2.50936,-5.5 -1.85731,-4.88172 -4.02865,-9.92661 -7.34515,-17.06572 -1.16656,-2.51115 -2.12399,-5.21115 -2.12761,-6 -0.004,-0.78886 -0.92287,-2.78428 -2.04277,-4.43428 -1.11989,-1.65 -2.66897,-4.4625 -3.44238,-6.25 -0.77341,-1.7875 -1.95417,-3.25 -2.6239,-3.25 -0.66973,0 -0.97104,-0.24666 -0.66956,-0.54813 0.50891,-0.50891 -1.35265,-3.09415 -5.38147,-7.47352 -0.91666,-0.99643 -1.40416,-2.07418 -1.08333,-2.39502 0.32083,-0.32083 0.12719,-0.58333 -0.43032,-0.58333 -0.55751,0 -2.05137,-0.9 -3.31968,-2 -1.26831,-1.1 -3.04014,-2 -3.9374,-2 -0.89726,0 -2.42885,-1.35 -3.40353,-3 -0.97468,-1.65 -2.4217,-3 -3.21561,-3 -0.7939,0 -1.44346,-0.45 -1.44346,-1 0,-0.55 -1.125,-1 -2.5,-1 -1.55556,0 -2.5,-0.56667 -2.5,-1.5 0,-0.825 0.675,-1.5 1.5,-1.5 0.825,0 1.5,0.39148 1.5,0.86995 0,0.47847 2.08066,1.10447 4.62368,1.3911 2.54303,0.28664 4.90553,0.95087 5.25,1.47608 0.34448,0.52521 1.86382,1.25779 3.37632,1.62795 1.5125,0.37016 2.75,1.11445 2.75,1.65397 0,1.35408 7.74593,1.24317 8.19945,-0.1174 0.20137,-0.6041 2.48887,-1.33762 5.08333,-1.63006 2.59447,-0.29243 4.71722,-0.92317 4.71722,-1.40164 0,-0.47847 1.0125,-0.86306 2.25,-0.85464 1.63724,0.0112 1.88181,0.24863 0.89803,0.87204 -0.89155,0.56496 0.5604,1.09566 4.2635,1.55833 3.08851,0.38588 5.38834,1.06913 5.11072,1.51831 -0.27761,0.44919 1.07882,1.11379 3.01429,1.47689 1.93547,0.36309 3.28464,1.03943 2.99816,1.50297 -0.28648,0.46354 0.63953,1.13405 2.05781,1.49001 1.41828,0.35597 3.10267,1.08596 3.74309,1.62221 4.15472,3.47889 6.66782,5.94393 6.05983,5.94393 -0.38919,0 1.50013,2.19012 4.19848,4.86693 6.12837,6.07946 9.30423,9.9016 8.71605,10.48978 -0.24914,0.24913 0.93313,0.75741 2.62726,1.1295 1.69413,0.37209 2.82475,1.08992 2.51249,1.59516 -0.31226,0.50525 -0.13095,0.91863 0.4029,0.91863 0.53386,0 2.22454,3.2625 3.75707,7.25 1.53253,3.9875 4.06891,9.1625 5.63641,11.5 1.56749,2.3375 2.54201,4.25 2.16559,4.25 -0.37643,0 0.48045,1.16485 1.90415,2.58856 1.42371,1.42371 3.00697,2.32997 3.51835,2.01392 0.51139,-0.31605 2.40532,-4.29341 4.20874,-8.83856 1.80342,-4.54516 3.59631,-8.71392 3.9842,-9.26392 0.8608,-1.22056 5.72055,-9.88851 7.84921,-14 1.53732,-2.96933 1.64878,-6.31222 0.98353,-29.5 -0.11835,-4.125 0.46904,-10.87622 1.3053,-15.00271 1.08314,-5.34471 1.28546,-9.22771 0.70342,-13.5 -3.27399,-24.03173 -3.21389,-22.77655 -1.43924,-30.05613 0.93068,-3.81764 2.33981,-8.35917 3.1314,-10.09229 0.79159,-1.73312 1.44134,-3.53312 1.44389,-4 0.003,-0.46688 1.37535,-2.31137 3.05068,-4.09887 2.04894,-2.18612 3.9741,-3.25 5.88107,-3.25 1.55925,0 4.06484,-0.63804 5.56796,-1.41788 3.09398,-1.60517 9.20318,-1.01746 11.30854,1.0879 0.73149,0.73149 2.22439,1.32998 3.31757,1.32998 1.09317,0 1.70947,0.45 1.36955,1 -0.33992,0.55 0.0318,1 0.82597,1 3.1972,0 4.3517,4.27718 4.99352,18.5 0.40816,9.04493 1.34362,16.6545 2.64302,21.5 1.10619,4.125 2.92066,11.64242 4.03216,16.70537 1.11149,5.06296 2.46739,10.37975 3.01311,11.8151 0.54572,1.43535 0.99222,4.09886 0.99222,5.9189 0,1.82005 0.72204,5.27825 1.60452,7.6849 1.89158,5.15856 3.77762,44.43522 2.75514,57.37573 -0.73652,9.32144 -5.31766,28.52284 -8.42172,35.29883 -1.18448,2.58564 -2.76296,6.05117 -3.50774,7.70117 -1.02256,2.26539 -1.49697,12.06017 -1.93739,40 -0.32078,20.35 -0.78726,38.125 -1.03662,39.5 -0.24937,1.375 -0.89589,7.67036 -1.43672,13.98969 -0.98707,11.53354 -1.23695,13.07299 -5.11478,31.51031 -1.15679,5.5 -2.72433,13.34273 -3.48342,17.42828 -0.75909,4.08555 -1.95191,7.78164 -2.65072,8.21353 -0.6988,0.43188 -1.30941,1.13915 -1.35692,1.57172 -0.0475,0.43256 -0.34863,1.46147 -0.66918,2.28647 -0.32055,0.825 -0.80723,4.37561 -1.08152,7.89024 -0.27429,3.51462 -0.87316,6.66462 -1.33082,7 -0.45766,0.33537 -0.98737,1.50976 -1.17713,2.60976 -0.18976,1.1 -0.70231,2.45 -1.13899,3 -0.43669,0.55 -1.79636,5.05 -3.0215,10 -1.22514,4.95 -2.81151,10.14055 -3.52528,11.53456 -0.71376,1.394 -1.60401,4.319 -1.97833,6.5 -0.77231,4.49982 -2.14285,9.35703 -4.08169,14.46544 -2.00834,5.29156 -3.36275,25.63866 -3.57788,53.75 -0.10628,13.8875 -0.2243,29.525 -0.26227,34.75 -0.038,5.225 -0.40654,9.5 -0.81904,9.5 -0.4125,0 -0.75,0.675 -0.75,1.5 0,1.55637 -1.56079,2.0632 -2.30967,0.75 z m 3.23938,-358.5 c -0.14142,-6.53965 -2.43801,-8.68795 -2.93982,-2.75 -0.38216,4.52213 -0.0102,6 1.51011,6 1.04006,0 1.47845,-0.99654 1.42971,-3.25 z m 4.81595,-15 c 0.596,-1.2375 1.51276,-4.11746 2.03725,-6.39991 0.86041,-3.74429 0.9088,-5.58787 0.27165,-10.35009 -0.31554,-2.35844 -3.74459,8.11083 -4.53217,13.83723 -0.74646,5.42738 0.33184,6.84009 2.22327,2.91277 z m -0.74566,-64.75 c 0,-0.55 -0.47656,-1 -1.05902,-1 -0.58246,0 -0.7809,0.45 -0.44098,1 0.33992,0.55 0.81648,1 1.05902,1 0.24254,0 0.44098,-0.45 0.44098,-1 z M 298.94142,470.93022 c -0.31091,-1.18892 -0.12485,-2.98464 0.41346,-3.99049 0.53832,-1.00585 1.03813,-3.4081 1.11069,-5.33833 0.0726,-1.93023 0.62153,-3.5164 1.21991,-3.52482 0.59838,-0.008 0.41297,-0.45842 -0.41203,-1 -1.33333,-0.87528 -1.33333,-1.0941 0,-1.96938 1.28415,-0.84299 1.24817,-0.98689 -0.25,-1 -1.18,-0.0103 -1.75,-0.80296 -1.75,-2.43352 0,-3.61557 1.0157,-5.58179 2.88341,-5.58179 1.34459,0 1.59521,0.77835 1.28798,4 -0.42745,4.48219 1.50234,5.681 2.01219,1.25 0.24425,-2.12274 0.91472,-2.81938 2.93949,-3.05417 2.17799,-0.25257 2.71705,0.17163 3.17699,2.5 0.30466,1.54229 -0.0155,3.92917 -0.71151,5.30417 -2.49917,4.93741 -6.90447,12.50972 -7.56292,13 -0.36933,0.275 -0.96207,1.2875 -1.31719,2.25 -0.88445,2.39717 -2.35812,2.19764 -3.04047,-0.41167 z m 62.7315,0.56306 c 0.25417,-0.66237 -0.40398,-1.43081 -1.46256,-1.70764 -1.71619,-0.44879 -1.85808,-1.13653 -1.30975,-6.34853 0.73212,-6.95905 2.81138,-10.91864 6.77083,-12.89388 4.44323,-2.21657 6.07234,-1.80503 7.40112,1.86966 1.90028,5.25512 1.5333,11.41396 -0.79911,13.41103 -1.1,0.94185 -2,2.28744 -2,2.99021 0,0.70277 -1.0125,1.28465 -2.25,1.29307 -1.64873,0.0112 -1.88629,0.24575 -0.88898,0.87764 0.94412,0.59817 0.24531,0.99257 -2.28134,1.28754 -2.56196,0.2991 -3.50528,0.068 -3.18021,-0.7791 z m -95.7611,-146.90139 c -0.37321,-0.97259 0.0287,-1.5048 1.14301,-1.51366 0.94524,-0.007 2.84362,-0.2452 4.21862,-0.5282 2.41828,-0.49774 2.42645,-0.482 0.25,0.48143 -1.2375,0.54779 -2.25,1.46048 -2.25,2.02821 0,1.59631 -2.71451,1.21858 -3.36163,-0.46778 z" id="path4066"/>
  </g>
</svg>