<?xml version="1.0" encoding="UTF-8" standalone="no"?>
<!-- Created with Inkscape (http://www.inkscape.org/) -->

<svg
   xmlns:dc="http://purl.org/dc/elements/1.1/"
   xmlns:cc="http://creativecommons.org/ns#"
   xmlns:rdf="http://www.w3.org/1999/02/22-rdf-syntax-ns#"
   xmlns:svg="http://www.w3.org/2000/svg"
   xmlns="http://www.w3.org/2000/svg"
   xmlns:xlink="http://www.w3.org/1999/xlink"
   xmlns:sodipodi="http://sodipodi.sourceforge.net/DTD/sodipodi-0.dtd"
   xmlns:inkscape="http://www.inkscape.org/namespaces/inkscape"
   width="1523.6221"
   height="1087.7953"
   id="svg2"
   version="1.1"
   inkscape:version="0.47+devel r"
   sodipodi:docname="lgm_cover_02.svg">
  <defs
     id="defs4">
    <inkscape:perspective
       sodipodi:type="inkscape:persp3d"
       inkscape:vp_x="0 : 526.18109 : 1"
       inkscape:vp_y="0 : 1000 : 0"
       inkscape:vp_z="744.09448 : 526.18109 : 1"
       inkscape:persp3d-origin="372.04724 : 350.78739 : 1"
       id="perspective10" />
    <inkscape:perspective
       id="perspective13656"
       inkscape:persp3d-origin="0.5 : 0.33333333 : 1"
       inkscape:vp_z="1 : 0.5 : 1"
       inkscape:vp_y="0 : 1000 : 0"
       inkscape:vp_x="0 : 0.5 : 1"
       sodipodi:type="inkscape:persp3d" />
    <inkscape:perspective
       id="perspective13763"
       inkscape:persp3d-origin="0.5 : 0.33333333 : 1"
       inkscape:vp_z="1 : 0.5 : 1"
       inkscape:vp_y="0 : 1000 : 0"
       inkscape:vp_x="0 : 0.5 : 1"
       sodipodi:type="inkscape:persp3d" />
    <inkscape:perspective
       id="perspective13849"
       inkscape:persp3d-origin="0.5 : 0.33333333 : 1"
       inkscape:vp_z="1 : 0.5 : 1"
       inkscape:vp_y="0 : 1000 : 0"
       inkscape:vp_x="0 : 0.5 : 1"
       sodipodi:type="inkscape:persp3d" />
    <inkscape:perspective
       id="perspective13926"
       inkscape:persp3d-origin="0.5 : 0.33333333 : 1"
       inkscape:vp_z="1 : 0.5 : 1"
       inkscape:vp_y="0 : 1000 : 0"
       inkscape:vp_x="0 : 0.5 : 1"
       sodipodi:type="inkscape:persp3d" />
    <inkscape:perspective
       id="perspective14003"
       inkscape:persp3d-origin="0.5 : 0.33333333 : 1"
       inkscape:vp_z="1 : 0.5 : 1"
       inkscape:vp_y="0 : 1000 : 0"
       inkscape:vp_x="0 : 0.5 : 1"
       sodipodi:type="inkscape:persp3d" />
    <inkscape:perspective
       id="perspective14080"
       inkscape:persp3d-origin="0.5 : 0.33333333 : 1"
       inkscape:vp_z="1 : 0.5 : 1"
       inkscape:vp_y="0 : 1000 : 0"
       inkscape:vp_x="0 : 0.5 : 1"
       sodipodi:type="inkscape:persp3d" />
    <inkscape:perspective
       id="perspective14157"
       inkscape:persp3d-origin="0.5 : 0.33333333 : 1"
       inkscape:vp_z="1 : 0.5 : 1"
       inkscape:vp_y="0 : 1000 : 0"
       inkscape:vp_x="0 : 0.5 : 1"
       sodipodi:type="inkscape:persp3d" />
    <inkscape:perspective
       id="perspective14234"
       inkscape:persp3d-origin="0.5 : 0.33333333 : 1"
       inkscape:vp_z="1 : 0.5 : 1"
       inkscape:vp_y="0 : 1000 : 0"
       inkscape:vp_x="0 : 0.5 : 1"
       sodipodi:type="inkscape:persp3d" />
    <inkscape:perspective
       id="perspective14311"
       inkscape:persp3d-origin="0.5 : 0.33333333 : 1"
       inkscape:vp_z="1 : 0.5 : 1"
       inkscape:vp_y="0 : 1000 : 0"
       inkscape:vp_x="0 : 0.5 : 1"
       sodipodi:type="inkscape:persp3d" />
    <inkscape:perspective
       id="perspective14388"
       inkscape:persp3d-origin="0.5 : 0.33333333 : 1"
       inkscape:vp_z="1 : 0.5 : 1"
       inkscape:vp_y="0 : 1000 : 0"
       inkscape:vp_x="0 : 0.5 : 1"
       sodipodi:type="inkscape:persp3d" />
    <inkscape:perspective
       id="perspective36072"
       inkscape:persp3d-origin="595.27551 : 280.63033 : 1"
       inkscape:vp_z="1190.551 : 420.9455 : 1"
       inkscape:vp_y="0 : 1000 : 0"
       inkscape:vp_x="0 : 420.9455 : 1"
       sodipodi:type="inkscape:persp3d" />
    <inkscape:perspective
       id="perspective46950"
       inkscape:persp3d-origin="0.5 : 0.33333333 : 1"
       inkscape:vp_z="1 : 0.5 : 1"
       inkscape:vp_y="0 : 1000 : 0"
       inkscape:vp_x="0 : 0.5 : 1"
       sodipodi:type="inkscape:persp3d" />
  </defs>
  <sodipodi:namedview
     id="base"
     pagecolor="#ffffff"
     bordercolor="#666666"
     borderopacity="1.0"
     inkscape:pageopacity="0.0"
     inkscape:pageshadow="2"
     inkscape:zoom="0.45721477"
     inkscape:cx="872.67206"
     inkscape:cy="702.92512"
     inkscape:document-units="px"
     inkscape:current-layer="layer1"
     showgrid="false"
     units="mm"
     showguides="true"
     inkscape:guide-bbox="true"
     inkscape:window-width="1280"
     inkscape:window-height="727"
     inkscape:window-x="0"
     inkscape:window-y="25"
     inkscape:window-maximized="1">
    <sodipodi:guide
       orientation="1,0"
       position="742.85714,908.57143"
       id="guide2818" />
    <sodipodi:guide
       orientation="0,1"
       position="780,1016.4286"
       id="guide2822" />
    <sodipodi:guide
       orientation="1,0"
       position="777.85714,1039.2857"
       id="guide2824" />
  </sodipodi:namedview>
  <metadata
     id="metadata7">
    <rdf:RDF>
      <cc:Work
         rdf:about="">
        <dc:format>image/svg+xml</dc:format>
        <dc:type
           rdf:resource="http://purl.org/dc/dcmitype/StillImage" />
        <dc:title />
      </cc:Work>
    </rdf:RDF>
  </metadata>
  <g
     inkscape:label="Layer 1"
     inkscape:groupmode="layer"
     id="layer1"
     transform="translate(0,35.433064)">
    <image
       sodipodi:absref="/home/ana/libregraphicsmag/vol1issue3/covers/bg2.jpg"
       xlink:href="bg2.jpg"
       y="-35.433064"
       x="-0.071289264"
       id="image14005"
       height="1087.7953"
       width="1523.6934" />
    <g
       id="g6355"
       transform="translate(-23.498068,19.244668)">
      <g
         transform="translate(17.680908,-17.716511)"
         id="g3409">
        <g
           id="g3403"
           transform="translate(164.9672,64.675433)">
          <rect
             y="-28.74184"
             x="1170.1263"
             height="144.04196"
             width="119.73934"
             id="rect3469-6"
             style="fill:#ffffff;fill-opacity:1;stroke:none" />
          <path
             id="rect50494-2"
             d="m 1164.4703,-34.206681 0,210.843751 132.8125,0 0,-210.843751 -132.8125,0 z m 13.9687,13.625 6.9063,0 0,32.46875 13.0313,0 0,6.875 -19.9376,0 0,-0.34375 0,-39 z m 23.7188,0 6.875,0 0,39.34375 -6.875,0 0,-39.34375 z m 10.6562,0 6.875,0 2.9688,0 0,0.125 c 5.5666,0.62011 9.6562,3.37597 9.6562,9.875 0,3.39034 -1.342,5.77577 -3.3437,7.375 3.2812,1.56941 5.4375,4.70403 5.4375,10.28125 -10e-5,8.92355 -6.4758,11.6875 -12.4688,11.6875 l -9.125,0 0,-6.875 0,-32.46875 z m 24.2188,0 11.9688,0 c 6.8773,0 12.3437,2.4827 12.3437,11.40625 0,5.46284 -2.4305,8.55168001 -5.6875,10.12500001 l 5.75,17.81249999 -7.2188,0 -5.3124,-16.4375 c -0.096,-1.3e-4 -0.1901,0.004 -0.2813,0 l -4.7187,0 0,16.4375 -6.8438,0 0,-16.4375 0,-6.875 0,-9.15625 0,-6.875 z m 26.7188,0 19.9062,0 0,6.84375 -13.0625,0 0,9.1875 7.5625,0 0,6.875 -7.5625,0 0,9.5625 13.0625,0 0,6.875 -19.9062,0 0,-6.875 0,-9.5625 0,-6.875 0,-9.1875 0,-6.84375 z m -44.0626,6.875 0,6.375 c 0.052,-0.01 0.1086,-0.0312 0.1563,-0.0312 1.7402,0 5.6563,0.28043 5.6563,-3.21875 0,-2.51505 -2.05,-3.03668 -3.7813,-3.125 l -2.0313,0 z m 24.1876,0 0,9.15625 5,0 c 1.7402,0 5.6562,-0.33695 5.6562,-4.625 0,-4.53242 -3.9868,-4.53125 -5.5312,-4.53125 l -5.125,0 z m -24.1876,16.03125 0,9.5625 2.25,0 c 1.7403,0 5.6563,-0.52446 5.6563,-4.8125 0,-4.53243 -3.9868,-4.71875 -5.5313,-4.71875 -0.048,0 -0.101,-0.0181 -0.1562,-0.0312 l -2.2188,0 z m -30.1874,20.0625 c 8.9236,0 11.5312,6.44448 11.5312,12.4375 l -6.875,0 c 0,-1.74028 -0.3682,-5.625 -4.6562,-5.625 -4.5325,0 -4.5313,3.98671 -4.5313,5.53125 l 0,16.03125 c 0,1.54455 0,5.53126 4.5313,5.53125 4.288,0 4.6562,-3.91598 4.6562,-5.65625 l 0,-1.96875 -4.5625,0 0,-6.84375 11.4375,0 0,2.28125 0,6.53125 c 0,5.993 -2.6076,12.46875 -11.5312,12.46875 -8.9236,0 -11.4063,-5.46638 -11.4063,-12.34375 0,-0.21491 0.02,-0.43345 0.031,-0.625 l 0,-14.8125 c -0.013,-0.19154 -0.031,-0.37883 -0.031,-0.59375 0,-6.87736 2.4828,-12.34375 11.4063,-12.34375 z m 54.4062,0 c 8.9077,0 11.4909,6.42216 11.5,12.40625 l 0,27.625 -6.875,0 0,-9.5625 -9.1562,0 0,9.5625 -6.875,0 0,-27.09375 c -0.013,-0.19154 -0.031,-0.37883 -0.031,-0.59375 0,-6.87736 2.5139,-12.34375 11.4375,-12.34375 z m -39.2188,0.65625 12,0 c 6.8775,0 12.3438,2.51396 12.3438,11.4375 0,5.46284 -2.4305,8.52043 -5.6875,10.09375 l 5.75,17.84375 -7.2187,0 -5.3126,-16.4375 c -0.1929,0 -0.3897,0.0136 -0.5624,0 l -4.4376,0 0,16.4375 -6.875,0 0,-16.4375 0,-6.90625 0,-9.125 0,-6.90625 z m 54.5938,0 11.9688,0 c 6.8771,0 12.375,2.51396 12.375,11.4375 0,8.92355 -6.4758,11.5 -12.4688,11.5 -0.1929,0 -0.3899,0.0136 -0.5625,0 l -4.4375,0 0,16.4375 -6.875,0 0,-16.4375 0,-6.90625 0,-9.125 0,-6.90625 z m -15.375,6.15625 c -4.5325,0 -4.5312,3.98671 -4.5312,5.53125 l 0,11.25 9.1562,0 0,-11.15625 c 10e-5,-1.74027 -0.337,-5.625 -4.625,-5.625 z m -32.3438,0.75 0,9.125 5,0 0,0.0313 c 1.7403,0 5.6563,-0.33694 5.6563,-4.625 0,-4.5324 -3.9867,-4.53125 -5.5313,-4.53125 l -5.125,0 z m 54.5938,0 0,9.125 5,0 0,0.0313 c 1.7403,0 5.625,-0.33694 5.625,-4.625 0,-4.5324 -3.9868,-4.53125 -5.5312,-4.53125 l -5.0938,0 z m -39.2812,35.40625 c 8.9236,-1e-5 11.5312,6.44448 11.5312,12.4375 l -6.875,0 c 0,-1.74027 -0.3682,-5.625 -4.6562,-5.625 -4.5324,0 -4.5313,3.98671 -4.5313,5.53125 l 0,16.03125 c 0,1.54454 0,5.53125 4.5313,5.53125 4.288,0 4.6562,-3.91599 4.6562,-5.65625 l 0,-2.71875 6.875,0 0,2.71875 c -10e-5,5.993 -2.6076,12.468771 -11.5312,12.468751 -8.9236,0 -11.4063,-5.46639 -11.4063,-12.343751 0,-0.21492 0.02,-0.43344 0.031,-0.625 l 0,-14.8125 c -0.013,-0.19156 -0.031,-0.37884 -0.031,-0.59375 0,-6.87737 2.4828,-12.34375 11.4063,-12.34375 z m 26.2812,0 c 11.0176,0 11.5,12.46875 11.5,12.46875 l -6.875,0 c 0,-2.87951 -1.2609,-5.65622 -4.625,-5.65625 -3.3035,0 -4.5312,2.33111 -4.5312,5.53125 0,3.68936 4.0209,3.84421 7.625,5.78125 3.6038,1.93705 8.4062,4.16622 8.4062,10.125 0,0 -0.4824,12.468771 -11.5,12.468751 -11.4249,0 -11.4375,-12.343751 -11.4375,-12.343751 l 6.9063,0 c 0,0 -0.01,5.53125 4.5312,5.53125 4.2881,0 4.625,-5.65625 4.625,-5.65625 0,-3.82697 -5.2486,-4.08261 -9.0625,-6.03125 -4.1487,-2.11973 -7,-3.16527 -7,-9.875 -10e-5,0 0.017,-12.34374 11.4375,-12.34375 z m -75.0312,0.65625 6.8437,0 0,16 9.1875,0 0,-16 6.875,0 0,39.375001 -6.875,0 0,-16.468751 -9.1875,0 0,16.468751 -6.8437,0 0,-39.375001 z m 26.6874,0 6.875,0 0,39.375001 -6.875,0 0,-39.375001 z"
             style="fill:#000000;fill-opacity:1;stroke:none;display:inline"
             inkscape:connector-curvature="0" />
          <text
             sodipodi:linespacing="125%"
             id="text3690"
             y="163.86659"
             x="1256.4004"
             style="font-size:24.68955421px;font-style:normal;font-variant:normal;font-weight:bold;font-stretch:normal;line-height:125%;letter-spacing:0px;word-spacing:0px;fill:#da1f00;fill-opacity:1;stroke:none;font-family:DIN_OSP;-inkscape-font-specification:PropCourierSans Bold"
             xml:space="preserve"><tspan
               dx="0 -0.78720331"
               style="font-style:normal;font-variant:normal;font-weight:bold;font-stretch:normal;fill:#da1f00;fill-opacity:1;font-family:PropCourierSans;-inkscape-font-specification:PropCourierSans Bold"
               y="163.86659"
               x="1256.4004"
               id="tspan3692"
               sodipodi:role="line">1.3</tspan></text>
        </g>
      </g>
    </g>
  </g>
</svg>
